{
    "photos": {
        "page": 2,
        "pages": 12980,
        "perpage": 25,
        "total": "337469",
        "photo": [
            {
                "id": "30509136817",
                "owner": "163434297@N08",
                "secret": "a76d64e106",
                "server": "1962",
                "farm": 2,
                "title": "Test Title",
                "ispublic": 1,
                "isfriend": 0,
                "isfamily": 0
            },
            {
                "id": "45448228911",
                "owner": "164361048@N08",
                "secret": "4d730ecf6f",
                "server": "1931",
                "farm": 2,
                "title": "Tech: These are the 15 best video games to put your 4K HDR screen to the test",
                "ispublic": 1,
                "isfriend": 0,
                "isfamily": 0
            },
            {
                "id": "44723686384",
                "owner": "164361048@N08",
                "secret": "cdc779f093",
                "server": "1927",
                "farm": 2,
                "title": "Tech: These are the 15 best video games to put your 4K HDR screen to the test",
                "ispublic": 1,
                "isfriend": 0,
                "isfamily": 0
            },
            {
                "id": "43630503940",
                "owner": "11655978@N07",
                "secret": "81b9d1e457",
                "server": "1906",
                "farm": 2,
                "title": "Natasha - Rome (Ps)",
                "ispublic": 1,
                "isfriend": 0,
                "isfamily": 0
            },
            {
                "id": "44719942844",
                "owner": "139172215@N02",
                "secret": "0b9c1bdd34",
                "server": "1962",
                "farm": 2,
                "title": "Test Erdre Audio D101G",
                "ispublic": 1,
                "isfriend": 0,
                "isfamily": 0
            },
            {
                "id": "44526370425",
                "owner": "167549989@N03",
                "secret": "95e2c90ddc",
                "server": "1930",
                "farm": 2,
                "title": "Black Agito Wanijima - Air Gear",
                "ispublic": 1,
                "isfriend": 0,
                "isfamily": 0
            },
            {
                "id": "30501160617",
                "owner": "167549989@N03",
                "secret": "0a8c57117e",
                "server": "1918",
                "farm": 2,
                "title": "Black Agito Wanijima - Air Gear",
                "ispublic": 1,
                "isfriend": 0,
                "isfamily": 0
            },
            {
                "id": "44526369115",
                "owner": "167549989@N03",
                "secret": "657368ff7e",
                "server": "1932",
                "farm": 2,
                "title": "Black Agito Wanijima - Air Gear",
                "ispublic": 1,
                "isfriend": 0,
                "isfamily": 0
            },
            {
                "id": "30501157957",
                "owner": "167549989@N03",
                "secret": "560c2cd32b",
                "server": "1929",
                "farm": 2,
                "title": "Black Agito Wanijima - Air Gear",
                "ispublic": 1,
                "isfriend": 0,
                "isfamily": 0
            },
            {
                "id": "43623603910",
                "owner": "66009666@N00",
                "secret": "5b86aa2f02",
                "server": "1967",
                "farm": 2,
                "title": "Photo",
                "ispublic": 1,
                "isfriend": 0,
                "isfamily": 0
            },
            {
                "id": "45388427772",
                "owner": "66009666@N00",
                "secret": "9bddfac1d3",
                "server": "1901",
                "farm": 2,
                "title": "Photo",
                "ispublic": 1,
                "isfriend": 0,
                "isfamily": 0
            },
            {
                "id": "44525454415",
                "owner": "66009666@N00",
                "secret": "42a6110b9c",
                "server": "1963",
                "farm": 2,
                "title": "#texture #xplo",
                "ispublic": 1,
                "isfriend": 0,
                "isfamily": 0
            },
            {
                "id": "44525284275",
                "owner": "124899204@N07",
                "secret": "b13c7e64df",
                "server": "1964",
                "farm": 2,
                "title": "Ricoh GR Digital (first digital edition 8 megapixel).     #ricoh #ricohgrd #monochrome #blackandwhite #test #oldtechnology",
                "ispublic": 1,
                "isfriend": 0,
                "isfamily": 0
            },
            {
                "id": "45448228911",
                "owner": "164361048@N08",
                "secret": "4d730ecf6f",
                "server": "1931",
                "farm": 2,
                "title": "Tech: These are the 15 best video games to put your 4K HDR screen to the test",
                "ispublic": 1,
                "isfriend": 0,
                "isfamily": 0
            },
            {
                "id": "44723686384",
                "owner": "164361048@N08",
                "secret": "cdc779f093",
                "server": "1927",
                "farm": 2,
                "title": "Tech: These are the 15 best video games to put your 4K HDR screen to the test",
                "ispublic": 1,
                "isfriend": 0,
                "isfamily": 0
            },
            {
                "id": "43630503940",
                "owner": "11655978@N07",
                "secret": "81b9d1e457",
                "server": "1906",
                "farm": 2,
                "title": "Natasha - Rome (Ps)",
                "ispublic": 1,
                "isfriend": 0,
                "isfamily": 0
            },
            {
                "id": "44719942844",
                "owner": "139172215@N02",
                "secret": "0b9c1bdd34",
                "server": "1962",
                "farm": 2,
                "title": "Test Erdre Audio D101G",
                "ispublic": 1,
                "isfriend": 0,
                "isfamily": 0
            },
            {
                "id": "44526370425",
                "owner": "167549989@N03",
                "secret": "95e2c90ddc",
                "server": "1930",
                "farm": 2,
                "title": "Black Agito Wanijima - Air Gear",
                "ispublic": 1,
                "isfriend": 0,
                "isfamily": 0
            },
            {
                "id": "30501160617",
                "owner": "167549989@N03",
                "secret": "0a8c57117e",
                "server": "1918",
                "farm": 2,
                "title": "Black Agito Wanijima - Air Gear",
                "ispublic": 1,
                "isfriend": 0,
                "isfamily": 0
            },
            {
                "id": "44526369115",
                "owner": "167549989@N03",
                "secret": "657368ff7e",
                "server": "1932",
                "farm": 2,
                "title": "Black Agito Wanijima - Air Gear",
                "ispublic": 1,
                "isfriend": 0,
                "isfamily": 0
            },
            {
                "id": "30501157957",
                "owner": "167549989@N03",
                "secret": "560c2cd32b",
                "server": "1929",
                "farm": 2,
                "title": "Black Agito Wanijima - Air Gear",
                "ispublic": 1,
                "isfriend": 0,
                "isfamily": 0
            },
            {
                "id": "43623603910",
                "owner": "66009666@N00",
                "secret": "5b86aa2f02",
                "server": "1967",
                "farm": 2,
                "title": "Photo",
                "ispublic": 1,
                "isfriend": 0,
                "isfamily": 0
            },
            {
                "id": "45388427772",
                "owner": "66009666@N00",
                "secret": "9bddfac1d3",
                "server": "1901",
                "farm": 2,
                "title": "Photo",
                "ispublic": 1,
                "isfriend": 0,
                "isfamily": 0
            },
            {
                "id": "44525454415",
                "owner": "66009666@N00",
                "secret": "42a6110b9c",
                "server": "1963",
                "farm": 2,
                "title": "#texture #xplo",
                "ispublic": 1,
                "isfriend": 0,
                "isfamily": 0
            },
            {
                "id": "44525284275",
                "owner": "124899204@N07",
                "secret": "b13c7e64df",
                "server": "1964",
                "farm": 2,
                "title": "Ricoh GR Digital (first digital edition 8 megapixel).     #ricoh #ricohgrd #monochrome #blackandwhite #test #oldtechnology",
                "ispublic": 1,
                "isfriend": 0,
                "isfamily": 0
            }
        ]
    },
    "stat": "ok"
}
